[
    {
        "title": "Сказочное заморское явство",
        "product": {
            "title": "Нямушка",
            "subtitle": "с фуа-гра",
            "descriptionList": ["10 порций", "мышь в подарок"],
            "weight": 0.5,
            "available": true
        },
        "description": "Печень утки разварная с артишоками."
    },
    {
        "title": "Сказочное заморское явство",
        "product": {
            "title": "Нямушка",
            "subtitle": "с рыбой",
            "descriptionList": ["40 порций", "2 мыши в подарок"],
            "weight": 2,
            "available": true
        },
        "description": "Головы щучьи с чесноком, да свежайшая сёмгушка."
    },
    {
        "title": "Сказочное заморское явство",
        "product": {
            "title": "Нямушка",
            "subtitle": "с курой",
            "descriptionList": [
                "100 порций",
                "5 мышей в подарок",
                "заказчик доволен"
            ],
            "weight": 5,
            "available": false
        },
        "description": "Филе из цыплят с трюфелями в бульоне."
    }
]